practica06/simulation/qsim/practica06.msim.vcd
$comment
	File created using the following command:
		vcd file practica06.msim.vcd -direction
$end
$date
	Fri May 12 08:51:31 2023
$end
$version
	ModelSim Version 10.5b
$end
$timescale
	1ps
$end

$scope module implementacion_vhd_vec_tst $end
$var wire 1 ! CLK $end
$var wire 1 " EDO_PST [3] $end
$var wire 1 # EDO_PST [2] $end
$var wire 1 $ EDO_PST [1] $end
$var wire 1 % EDO_PST [0] $end
$var wire 1 & IN_1 [3] $end
$var wire 1 ' IN_1 [2] $end
$var wire 1 ( IN_1 [1] $end
$var wire 1 ) IN_1 [0] $end
$var wire 1 * INT $end
$var wire 1 + OUTS [5] $end
$var wire 1 , OUTS [4] $end
$var wire 1 - OUTS [3] $end
$var wire 1 . OUTS [2] $end
$var wire 1 / OUTS [1] $end
$var wire 1 0 OUTS [0] $end
$var wire 1 1 RESET $end
$var wire 1 2 X $end
$var wire 1 3 Y $end

$scope module i1 $end
$var wire 1 4 gnd $end
$var wire 1 5 vcc $end
$var wire 1 6 unknown $end
$var wire 1 7 devoe $end
$var wire 1 8 devclrn $end
$var wire 1 9 devpor $end
$var wire 1 : ww_devoe $end
$var wire 1 ; ww_devclrn $end
$var wire 1 < ww_devpor $end
$var wire 1 = ww_EDO_PST [3] $end
$var wire 1 > ww_EDO_PST [2] $end
$var wire 1 ? ww_EDO_PST [1] $end
$var wire 1 @ ww_EDO_PST [0] $end
$var wire 1 A ww_X $end
$var wire 1 B ww_Y $end
$var wire 1 C ww_INT $end
$var wire 1 D ww_CLK $end
$var wire 1 E ww_RESET $end
$var wire 1 F ww_IN_1 [3] $end
$var wire 1 G ww_IN_1 [2] $end
$var wire 1 H ww_IN_1 [1] $end
$var wire 1 I ww_IN_1 [0] $end
$var wire 1 J ww_OUTS [5] $end
$var wire 1 K ww_OUTS [4] $end
$var wire 1 L ww_OUTS [3] $end
$var wire 1 M ww_OUTS [2] $end
$var wire 1 N ww_OUTS [1] $end
$var wire 1 O ww_OUTS [0] $end
$var wire 1 P \~QUARTUS_CREATED_ADC1~_CHSEL_bus\ [4] $end
$var wire 1 Q \~QUARTUS_CREATED_ADC1~_CHSEL_bus\ [3] $end
$var wire 1 R \~QUARTUS_CREATED_ADC1~_CHSEL_bus\ [2] $end
$var wire 1 S \~QUARTUS_CREATED_ADC1~_CHSEL_bus\ [1] $end
$var wire 1 T \~QUARTUS_CREATED_ADC1~_CHSEL_bus\ [0] $end
$var wire 1 U \~QUARTUS_CREATED_ADC2~_CHSEL_bus\ [4] $end
$var wire 1 V \~QUARTUS_CREATED_ADC2~_CHSEL_bus\ [3] $end
$var wire 1 W \~QUARTUS_CREATED_ADC2~_CHSEL_bus\ [2] $end
$var wire 1 X \~QUARTUS_CREATED_ADC2~_CHSEL_bus\ [1] $end
$var wire 1 Y \~QUARTUS_CREATED_ADC2~_CHSEL_bus\ [0] $end
$var wire 1 Z \inst2|cuenta[27]~clkctrl_INCLK_bus\ [3] $end
$var wire 1 [ \inst2|cuenta[27]~clkctrl_INCLK_bus\ [2] $end
$var wire 1 \ \inst2|cuenta[27]~clkctrl_INCLK_bus\ [1] $end
$var wire 1 ] \inst2|cuenta[27]~clkctrl_INCLK_bus\ [0] $end
$var wire 1 ^ \CLK~inputclkctrl_INCLK_bus\ [3] $end
$var wire 1 _ \CLK~inputclkctrl_INCLK_bus\ [2] $end
$var wire 1 ` \CLK~inputclkctrl_INCLK_bus\ [1] $end
$var wire 1 a \CLK~inputclkctrl_INCLK_bus\ [0] $end
$var wire 1 b \~QUARTUS_CREATED_GND~I_combout\ $end
$var wire 1 c \~QUARTUS_CREATED_UNVM~~busy\ $end
$var wire 1 d \~QUARTUS_CREATED_ADC1~~eoc\ $end
$var wire 1 e \~QUARTUS_CREATED_ADC2~~eoc\ $end
$var wire 1 f \EDO_PST[3]~output_o\ $end
$var wire 1 g \EDO_PST[2]~output_o\ $end
$var wire 1 h \EDO_PST[1]~output_o\ $end
$var wire 1 i \EDO_PST[0]~output_o\ $end
$var wire 1 j \OUTS[5]~output_o\ $end
$var wire 1 k \OUTS[4]~output_o\ $end
$var wire 1 l \OUTS[3]~output_o\ $end
$var wire 1 m \OUTS[2]~output_o\ $end
$var wire 1 n \OUTS[1]~output_o\ $end
$var wire 1 o \OUTS[0]~output_o\ $end
$var wire 1 p \CLK~input_o\ $end
$var wire 1 q \CLK~inputclkctrl_outclk\ $end
$var wire 1 r \inst2|cuenta[0]~28_combout\ $end
$var wire 1 s \inst2|cuenta[0]~29\ $end
$var wire 1 t \inst2|cuenta[1]~30_combout\ $end
$var wire 1 u \inst2|cuenta[1]~31\ $end
$var wire 1 v \inst2|cuenta[2]~32_combout\ $end
$var wire 1 w \inst2|cuenta[2]~33\ $end
$var wire 1 x \inst2|cuenta[3]~34_combout\ $end
$var wire 1 y \inst2|cuenta[3]~35\ $end
$var wire 1 z \inst2|cuenta[4]~36_combout\ $end
$var wire 1 { \inst2|cuenta[4]~37\ $end
$var wire 1 | \inst2|cuenta[5]~38_combout\ $end
$var wire 1 } \inst2|cuenta[5]~39\ $end
$var wire 1 ~ \inst2|cuenta[6]~40_combout\ $end
$var wire 1 !! \inst2|cuenta[6]~41\ $end
$var wire 1 "! \inst2|cuenta[7]~42_combout\ $end
$var wire 1 #! \inst2|cuenta[7]~43\ $end
$var wire 1 $! \inst2|cuenta[8]~44_combout\ $end
$var wire 1 %! \inst2|cuenta[8]~45\ $end
$var wire 1 &! \inst2|cuenta[9]~46_combout\ $end
$var wire 1 '! \inst2|cuenta[9]~47\ $end
$var wire 1 (! \inst2|cuenta[10]~48_combout\ $end
$var wire 1 )! \inst2|cuenta[10]~49\ $end
$var wire 1 *! \inst2|cuenta[11]~50_combout\ $end
$var wire 1 +! \inst2|cuenta[11]~51\ $end
$var wire 1 ,! \inst2|cuenta[12]~52_combout\ $end
$var wire 1 -! \inst2|cuenta[12]~53\ $end
$var wire 1 .! \inst2|cuenta[13]~54_combout\ $end
$var wire 1 /! \inst2|cuenta[13]~55\ $end
$var wire 1 0! \inst2|cuenta[14]~56_combout\ $end
$var wire 1 1! \inst2|cuenta[14]~57\ $end
$var wire 1 2! \inst2|cuenta[15]~58_combout\ $end
$var wire 1 3! \inst2|cuenta[15]~59\ $end
$var wire 1 4! \inst2|cuenta[16]~60_combout\ $end
$var wire 1 5! \inst2|cuenta[16]~61\ $end
$var wire 1 6! \inst2|cuenta[17]~62_combout\ $end
$var wire 1 7! \inst2|cuenta[17]~63\ $end
$var wire 1 8! \inst2|cuenta[18]~64_combout\ $end
$var wire 1 9! \inst2|cuenta[18]~65\ $end
$var wire 1 :! \inst2|cuenta[19]~66_combout\ $end
$var wire 1 ;! \inst2|cuenta[19]~67\ $end
$var wire 1 <! \inst2|cuenta[20]~68_combout\ $end
$var wire 1 =! \inst2|cuenta[20]~69\ $end
$var wire 1 >! \inst2|cuenta[21]~70_combout\ $end
$var wire 1 ?! \inst2|cuenta[21]~71\ $end
$var wire 1 @! \inst2|cuenta[22]~72_combout\ $end
$var wire 1 A! \inst2|cuenta[22]~73\ $end
$var wire 1 B! \inst2|cuenta[23]~74_combout\ $end
$var wire 1 C! \inst2|cuenta[23]~75\ $end
$var wire 1 D! \inst2|cuenta[24]~76_combout\ $end
$var wire 1 E! \inst2|cuenta[24]~77\ $end
$var wire 1 F! \inst2|cuenta[25]~78_combout\ $end
$var wire 1 G! \inst2|cuenta[25]~79\ $end
$var wire 1 H! \inst2|cuenta[26]~80_combout\ $end
$var wire 1 I! \inst2|cuenta[26]~81\ $end
$var wire 1 J! \inst2|cuenta[27]~82_combout\ $end
$var wire 1 K! \inst2|cuenta[27]~clkctrl_outclk\ $end
$var wire 1 L! \inst|Mux3~0_combout\ $end
$var wire 1 M! \RESET~input_o\ $end
$var wire 1 N! \secuenciador|MicroPC|internal_value[0]~0_combout\ $end
$var wire 1 O! \inst|Mux2~0_combout\ $end
$var wire 1 P! \VF|internal_value~q\ $end
$var wire 1 Q! \Y~input_o\ $end
$var wire 1 R! \inst|Mux1~0_combout\ $end
$var wire 1 S! \inst|Mux0~0_combout\ $end
$var wire 1 T! \INT~input_o\ $end
$var wire 1 U! \X~input_o\ $end
$var wire 1 V! \secuenciador|IntLogic|sel~6_combout\ $end
$var wire 1 W! \secuenciador|IntLogic|sel~7_combout\ $end
$var wire 1 X! \secuenciador|IntLogic|sel~8_combout\ $end
$var wire 1 Y! \secuenciador|Inc|Add0~4_combout\ $end
$var wire 1 Z! \inst|Mux7~0_combout\ $end
$var wire 1 [! \IN_1[1]~input_o\ $end
$var wire 1 \! \secuenciador|MuxDireccion|salida[1]~5_combout\ $end
$var wire 1 ]! \secuenciador|MuxDireccion|salida[1]~6_combout\ $end
$var wire 1 ^! \secuenciador|IntLogic|sel~1_combout\ $end
$var wire 1 _! \secuenciador|IntLogic|sel~0_combout\ $end
$var wire 1 `! \secuenciador|IntLogic|sel~2_combout\ $end
$var wire 1 a! \secuenciador|IntLogic|sel~3_combout\ $end
$var wire 1 b! \secuenciador|IntLogic|sel~4_combout\ $end
$var wire 1 c! \secuenciador|IntLogic|sel~5_combout\ $end
$var wire 1 d! \secuenciador|MuxDireccion|salida[1]~7_combout\ $end
$var wire 1 e! \secuenciador|Inc|Add0~3_combout\ $end
$var wire 1 f! \IN_1[2]~input_o\ $end
$var wire 1 g! \inst|Mux6~0_combout\ $end
$var wire 1 h! \secuenciador|MuxDireccion|salida[2]~3_combout\ $end
$var wire 1 i! \secuenciador|MuxDireccion|salida[2]~4_combout\ $end
$var wire 1 j! \inst|Mux8~0_combout\ $end
$var wire 1 k! \IN_1[0]~input_o\ $end
$var wire 1 l! \secuenciador|MuxDireccion|salida[0]~8_combout\ $end
$var wire 1 m! \secuenciador|MuxDireccion|salida[0]~9_combout\ $end
$var wire 1 n! \inst|Mux4~0_combout\ $end
$var wire 1 o! \inst|Mux5~0_combout\ $end
$var wire 1 p! \IN_1[3]~input_o\ $end
$var wire 1 q! \secuenciador|MuxDireccion|salida[3]~0_combout\ $end
$var wire 1 r! \secuenciador|Inc|Add0~2_combout\ $end
$var wire 1 s! \secuenciador|MuxDireccion|salida[3]~1_combout\ $end
$var wire 1 t! \secuenciador|MuxDireccion|salida[3]~2_combout\ $end
$var wire 1 u! \inst|Mux9~0_combout\ $end
$var wire 1 v! \inst|Mux10~0_combout\ $end
$var wire 1 w! \inst|Mux11~0_combout\ $end
$var wire 1 x! \inst|Mux12~0_combout\ $end
$var wire 1 y! \inst|Mux13~0_combout\ $end
$var wire 1 z! \inst|Mux14~0_combout\ $end
$var wire 1 {! \inst2|cuenta\ [27] $end
$var wire 1 |! \inst2|cuenta\ [26] $end
$var wire 1 }! \inst2|cuenta\ [25] $end
$var wire 1 ~! \inst2|cuenta\ [24] $end
$var wire 1 !" \inst2|cuenta\ [23] $end
$var wire 1 "" \inst2|cuenta\ [22] $end
$var wire 1 #" \inst2|cuenta\ [21] $end
$var wire 1 $" \inst2|cuenta\ [20] $end
$var wire 1 %" \inst2|cuenta\ [19] $end
$var wire 1 &" \inst2|cuenta\ [18] $end
$var wire 1 '" \inst2|cuenta\ [17] $end
$var wire 1 (" \inst2|cuenta\ [16] $end
$var wire 1 )" \inst2|cuenta\ [15] $end
$var wire 1 *" \inst2|cuenta\ [14] $end
$var wire 1 +" \inst2|cuenta\ [13] $end
$var wire 1 ," \inst2|cuenta\ [12] $end
$var wire 1 -" \inst2|cuenta\ [11] $end
$var wire 1 ." \inst2|cuenta\ [10] $end
$var wire 1 /" \inst2|cuenta\ [9] $end
$var wire 1 0" \inst2|cuenta\ [8] $end
$var wire 1 1" \inst2|cuenta\ [7] $end
$var wire 1 2" \inst2|cuenta\ [6] $end
$var wire 1 3" \inst2|cuenta\ [5] $end
$var wire 1 4" \inst2|cuenta\ [4] $end
$var wire 1 5" \inst2|cuenta\ [3] $end
$var wire 1 6" \inst2|cuenta\ [2] $end
$var wire 1 7" \inst2|cuenta\ [1] $end
$var wire 1 8" \inst2|cuenta\ [0] $end
$var wire 1 9" \LIGA|internal_value\ [3] $end
$var wire 1 :" \LIGA|internal_value\ [2] $end
$var wire 1 ;" \LIGA|internal_value\ [1] $end
$var wire 1 <" \LIGA|internal_value\ [0] $end
$var wire 1 =" \Instrucciones|internal_value\ [1] $end
$var wire 1 >" \Instrucciones|internal_value\ [0] $end
$var wire 1 ?" \Prueba|internal_value\ [1] $end
$var wire 1 @" \Prueba|internal_value\ [0] $end
$var wire 1 A" \R_Interru|internal_value\ [3] $end
$var wire 1 B" \R_Interru|internal_value\ [2] $end
$var wire 1 C" \R_Interru|internal_value\ [1] $end
$var wire 1 D" \R_Interru|internal_value\ [0] $end
$var wire 1 E" \SALIDAS|internal_value\ [5] $end
$var wire 1 F" \SALIDAS|internal_value\ [4] $end
$var wire 1 G" \SALIDAS|internal_value\ [3] $end
$var wire 1 H" \SALIDAS|internal_value\ [2] $end
$var wire 1 I" \SALIDAS|internal_value\ [1] $end
$var wire 1 J" \SALIDAS|internal_value\ [0] $end
$var wire 1 K" \secuenciador|MicroPC|internal_value\ [3] $end
$var wire 1 L" \secuenciador|MicroPC|internal_value\ [2] $end
$var wire 1 M" \secuenciador|MicroPC|internal_value\ [1] $end
$var wire 1 N" \secuenciador|MicroPC|internal_value\ [0] $end
$upscope $end
$upscope $end
$enddefinitions $end
#0
$dumpvars
0!
0*
11
12
13
04
15
x6
17
18
19
1:
1;
1<
1A
1B
0C
0D
1E
0b
zc
zd
ze
0f
0g
0h
0i
0j
0k
0l
0m
0n
0o
0p
0q
1r
0s
0t
1u
0v
0w
0x
1y
0z
0{
0|
1}
0~
0!!
0"!
1#!
0$!
0%!
0&!
1'!
0(!
0)!
0*!
1+!
0,!
0-!
0.!
1/!
00!
01!
02!
13!
04!
05!
06!
17!
08!
09!
0:!
1;!
0<!
0=!
0>!
1?!
0@!
0A!
0B!
1C!
0D!
0E!
0F!
1G!
0H!
0I!
0J!
0K!
0L!
1M!
1N!
0O!
0P!
1Q!
0R!
0S!
0T!
1U!
0V!
0W!
0X!
0Y!
0Z!
0[!
0\!
0]!
0^!
0_!
0`!
0a!
1b!
0c!
0d!
0e!
0f!
0g!
0h!
0i!
0j!
0k!
0l!
0m!
0n!
0o!
0p!
0q!
0r!
0s!
0t!
0u!
0v!
0w!
0x!
0y!
1z!
0&
0'
0(
0)
0=
0>
0?
0@
0F
0G
0H
0I
0J
0K
0L
0M
0N
0O
0{!
0|!
0}!
0~!
0!"
0""
0#"
0$"
0%"
0&"
0'"
0("
0)"
0*"
0+"
0,"
0-"
0."
0/"
00"
01"
02"
03"
04"
05"
06"
07"
08"
09"
0:"
0;"
0<"
0="
0>"
0?"
0@"
0A"
0B"
0C"
0D"
0E"
0F"
0G"
0H"
0I"
0J"
0K"
0L"
0M"
0N"
1^
1_
1`
0a
1Z
1[
1\
0]
0P
0Q
0R
0S
0T
0U
0V
0W
0X
0Y
0"
0#
0$
0%
0+
0,
0-
0.
0/
00
$end
#5000
1!
1D
1p
1a
1q
18"
0r
1s
1t
#10000
0!
0D
0p
0a
0q
#15000
1!
1D
1p
1a
1q
08"
17"
0t
0u
1r
0s
1t
1u
1v
0v
#20000
0!
0D
0p
0a
0q
#25000
1!
1D
1p
1a
1q
18"
0r
1s
0t
0u
1v
#30000
0!
0D
0p
0a
0q
#35000
1!
1D
1p
1a
1q
08"
07"
16"
0v
1w
1t
1u
1r
0s
0t
1v
0w
1x
0x
#40000
0!
0D
0p
0a
0q
#45000
1!
1D
1p
1a
1q
18"
0r
1s
1t
#50000
0!
0D
0p
0a
0q
#55000
1!
1D
1p
1a
1q
08"
17"
0t
0u
1r
0s
1t
1u
0v
1w
1x
1v
0w
0x
#60000
0!
0D
0p
0a
0q
#65000
1!
1D
1p
1a
1q
18"
0r
1s
0t
0u
0v
1w
1x
#70000
0!
0D
0p
0a
0q
#75000
1!
1D
1p
1a
1q
08"
07"
06"
15"
0x
0y
1v
0w
1t
1u
1r
0s
0t
0v
1x
1y
1z
0z
#80000
0!
0D
0p
0a
0q
#85000
1!
1D
1p
1a
1q
18"
0r
1s
1t
#90000
0!
0D
0p
0a
0q
#95000
1!
1D
1p
1a
1q
08"
17"
0t
0u
1r
0s
1t
1u
1v
0v
#100000
0!
0D
0p
0a
0q
#105000
1!
1D
1p
1a
1q
18"
0r
1s
0t
0u
1v
#110000
0!
0D
0p
0a
0q
#115000
1!
1D
1p
1a
1q
08"
07"
16"
0v
1w
1t
1u
1r
0s
0t
1v
0w
0x
0y
1z
1x
1y
0z
#120000
0!
0D
0p
0a
0q
#125000
1!
1D
1p
1a
1q
18"
0r
1s
1t
#130000
0!
0D
0p
0a
0q
#135000
1!
1D
1p
1a
1q
08"
17"
0t
0u
1r
0s
1t
1u
0v
1w
0x
0y
1v
0w
1x
1y
1z
0z
#140000
0!
0D
0p
0a
0q
#145000
1!
1D
1p
1a
1q
18"
0r
1s
0t
0u
0v
1w
0x
0y
1z
#150000
0!
0D
0p
0a
0q
#155000
1!
1D
1p
1a
1q
08"
07"
06"
05"
14"
0z
1{
1x
1y
1v
0w
1t
1u
1r
0s
0t
0v
0x
1z
0{
1|
0|
#160000
0!
0D
0p
0a
0q
#165000
1!
1D
1p
1a
1q
18"
0r
1s
1t
#170000
0!
0D
0p
0a
0q
#175000
1!
1D
1p
1a
1q
08"
17"
0t
0u
1r
0s
1t
1u
1v
0v
#180000
0!
0D
0p
0a
0q
#185000
1!
1D
1p
1a
1q
18"
0r
1s
0t
0u
1v
#190000
0!
0D
0p
0a
0q
#195000
1!
1D
1p
1a
1q
08"
07"
16"
0v
1w
1t
1u
1r
0s
0t
1v
0w
1x
0x
#200000
0!
0D
0p
0a
0q
#205000
1!
1D
1p
1a
1q
18"
0r
1s
1t
#210000
0!
0D
0p
0a
0q
#215000
1!
1D
1p
1a
1q
08"
17"
0t
0u
1r
0s
1t
1u
0v
1w
1x
1v
0w
0x
#220000
0!
0D
0p
0a
0q
#225000
1!
1D
1p
1a
1q
18"
0r
1s
0t
0u
0v
1w
1x
#230000
0!
0D
0p
0a
0q
#235000
1!
1D
1p
1a
1q
08"
07"
06"
15"
0x
0y
1v
0w
1t
1u
1r
0s
0t
0v
1x
1y
0z
1{
1|
1z
0{
0|
#240000
0!
0D
0p
0a
0q
#245000
1!
1D
1p
1a
1q
18"
0r
1s
1t
#250000
0!
0D
0p
0a
0q
#255000
1!
1D
1p
1a
1q
08"
17"
0t
0u
1r
0s
1t
1u
1v
0v
#260000
0!
0D
0p
0a
0q
#265000
1!
1D
1p
1a
1q
18"
0r
1s
0t
0u
1v
#270000
0!
0D
0p
0a
0q
#275000
1!
1D
1p
1a
1q
08"
07"
16"
0v
1w
1t
1u
1r
0s
0t
1v
0w
0x
0y
0z
1{
1x
1y
1z
0{
1|
0|
#280000
0!
0D
0p
0a
0q
#285000
1!
1D
1p
1a
1q
18"
0r
1s
1t
#290000
0!
0D
0p
0a
0q
#295000
1!
1D
1p
1a
1q
08"
17"
0t
0u
1r
0s
1t
1u
0v
1w
0x
0y
1v
0w
1x
1y
0z
1{
1|
1z
0{
0|
#300000
0!
0D
0p
0a
0q
#305000
1!
1D
1p
1a
1q
18"
0r
1s
0t
0u
0v
1w
0x
0y
0z
1{
1|
#310000
0!
0D
0p
0a
0q
#315000
1!
1D
1p
1a
1q
08"
07"
06"
05"
04"
13"
0|
0}
1z
0{
1x
1y
1v
0w
1t
1u
1r
0s
0t
0v
0x
0z
1|
1}
1~
0~
#320000
0!
0D
0p
0a
0q
#325000
1!
1D
1p
1a
1q
18"
0r
1s
1t
#330000
0!
0D
0p
0a
0q
#335000
1!
1D
1p
1a
1q
08"
17"
0t
0u
1r
0s
1t
1u
1v
0v
#340000
0!
0D
0p
0a
0q
#345000
1!
1D
1p
1a
1q
18"
0r
1s
0t
0u
1v
#350000
0!
0D
0p
0a
0q
#355000
1!
1D
1p
1a
1q
08"
07"
16"
0v
1w
1t
1u
1r
0s
0t
1v
0w
1x
0x
#360000
0!
0D
0p
0a
0q
#365000
1!
1D
1p
1a
1q
18"
0r
1s
1t
#370000
0!
0D
0p
0a
0q
#375000
1!
1D
1p
1a
1q
08"
17"
0t
0u
1r
0s
1t
1u
0v
1w
1x
1v
0w
0x
#380000
0!
0D
0p
0a
0q
#385000
1!
1D
1p
1a
1q
18"
0r
1s
0t
0u
0v
1w
1x
#390000
0!
0D
0p
0a
0q
#395000
1!
1D
1p
1a
1q
08"
07"
06"
15"
0x
0y
1v
0w
1t
1u
1r
0s
0t
0v
1x
1y
1z
0z
#400000
0!
0D
0p
0a
0q
#405000
1!
1D
1p
1a
1q
18"
0r
1s
1t
#410000
0!
0D
0p
0a
0q
#415000
1!
1D
1p
1a
1q
08"
17"
0t
0u
1r
0s
1t
1u
1v
0v
#420000
0!
0D
0p
0a
0q
#425000
1!
1D
1p
1a
1q
18"
0r
1s
0t
0u
1v
#430000
0!
0D
0p
0a
0q
#435000
1!
1D
1p
1a
1q
08"
07"
16"
0v
1w
1t
1u
1r
0s
0t
1v
0w
0x
0y
1z
1x
1y
0z
#440000
0!
0D
0p
0a
0q
#445000
1!
1D
1p
1a
1q
18"
0r
1s
1t
#450000
0!
0D
0p
0a
0q
#455000
1!
1D
1p
1a
1q
08"
17"
0t
0u
1r
0s
1t
1u
0v
1w
0x
0y
1v
0w
1x
1y
1z
0z
#460000
0!
0D
0p
0a
0q
#465000
1!
1D
1p
1a
1q
18"
0r
1s
0t
0u
0v
1w
0x
0y
1z
#470000
0!
0D
0p
0a
0q
#475000
1!
1D
1p
1a
1q
08"
07"
06"
05"
14"
0z
1{
1x
1y
1v
0w
1t
1u
1r
0s
0t
0v
0x
1z
0{
0|
0}
1~
1|
1}
0~
#480000
0!
0D
0p
0a
0q
#485000
1!
1D
1p
1a
1q
18"
0r
1s
1t
#490000
0!
0D
0p
0a
0q
#495000
1!
1D
1p
1a
1q
08"
17"
0t
0u
1r
0s
1t
1u
1v
0v
#500000
0!
0D
0p
0a
0q
#505000
1!
1D
1p
1a
1q
18"
0r
1s
0t
0u
1v
#510000
0!
0D
0p
0a
0q
#515000
1!
1D
1p
1a
1q
08"
07"
16"
0v
1w
1t
1u
1r
0s
0t
1v
0w
1x
0x
#520000
0!
0D
0p
0a
0q
#525000
1!
1D
1p
1a
1q
18"
0r
1s
1t
#530000
0!
0D
0p
0a
0q
#535000
1!
1D
1p
1a
1q
08"
17"
0t
0u
1r
0s
1t
1u
0v
1w
1x
1v
0w
0x
#540000
0!
0D
0p
0a
0q
#545000
1!
1D
1p
1a
1q
18"
0r
1s
0t
0u
0v
1w
1x
#550000
0!
0D
0p
0a
0q
#555000
1!
1D
1p
1a
1q
08"
07"
06"
15"
0x
0y
1v
0w
1t
1u
1r
0s
0t
0v
1x
1y
0z
1{
0|
0}
1z
0{
1|
1}
1~
0~
#560000
0!
0D
0p
0a
0q
#565000
1!
1D
1p
1a
1q
18"
0r
1s
1t
#570000
0!
0D
0p
0a
0q
#575000
1!
1D
1p
1a
1q
08"
17"
0t
0u
1r
0s
1t
1u
1v
0v
#580000
0!
0D
0p
0a
0q
#585000
1!
1D
1p
1a
1q
18"
0r
1s
0t
0u
1v
#590000
0!
0D
0p
0a
0q
#595000
1!
1D
1p
1a
1q
08"
07"
16"
0v
1w
1t
1u
1r
0s
0t
1v
0w
0x
0y
0z
1{
1x
1y
1z
0{
0|
0}
1~
1|
1}
0~
#600000
0!
0D
0p
0a
0q
#605000
1!
1D
1p
1a
1q
18"
0r
1s
1t
#610000
0!
0D
0p
0a
0q
#615000
1!
1D
1p
1a
1q
08"
17"
0t
0u
1r
0s
1t
1u
0v
1w
0x
0y
1v
0w
1x
1y
0z
1{
0|
0}
1z
0{
1|
1}
1~
0~
#620000
0!
0D
0p
0a
0q
#625000
1!
1D
1p
1a
1q
18"
0r
1s
0t
0u
0v
1w
0x
0y
0z
1{
0|
0}
1~
#630000
0!
0D
0p
0a
0q
#635000
1!
1D
1p
1a
1q
08"
07"
06"
05"
04"
03"
12"
0~
1!!
1|
1}
1z
0{
1x
1y
1v
0w
1t
1u
1r
0s
0t
0v
0x
0z
0|
1~
0!!
1"!
0"!
#640000
0!
0D
0p
0a
0q
#645000
1!
1D
1p
1a
1q
18"
0r
1s
1t
#650000
0!
0D
0p
0a
0q
#655000
1!
1D
1p
1a
1q
08"
17"
0t
0u
1r
0s
1t
1u
1v
0v
#660000
0!
0D
0p
0a
0q
#665000
1!
1D
1p
1a
1q
18"
0r
1s
0t
0u
1v
#670000
0!
0D
0p
0a
0q
#675000
1!
1D
1p
1a
1q
08"
07"
16"
0v
1w
1t
1u
1r
0s
0t
1v
0w
1x
0x
#680000
0!
0D
0p
0a
0q
#685000
1!
1D
1p
1a
1q
18"
0r
1s
1t
#690000
0!
0D
0p
0a
0q
#695000
1!
1D
1p
1a
1q
08"
17"
0t
0u
1r
0s
1t
1u
0v
1w
1x
1v
0w
0x
#700000
0!
0D
0p
0a
0q
#705000
1!
1D
1p
1a
1q
18"
0r
1s
0t
0u
0v
1w
1x
#710000
0!
0D
0p
0a
0q
#715000
1!
1D
1p
1a
1q
08"
07"
06"
15"
0x
0y
1v
0w
1t
1u
1r
0s
0t
0v
1x
1y
1z
0z
#720000
0!
0D
0p
0a
0q
#725000
1!
1D
1p
1a
1q
18"
0r
1s
1t
#730000
0!
0D
0p
0a
0q
#735000
1!
1D
1p
1a
1q
08"
17"
0t
0u
1r
0s
1t
1u
1v
0v
#740000
0!
0D
0p
0a
0q
#745000
1!
1D
1p
1a
1q
18"
0r
1s
0t
0u
1v
#750000
0!
0D
0p
0a
0q
#755000
1!
1D
1p
1a
1q
08"
07"
16"
0v
1w
1t
1u
1r
0s
0t
1v
0w
0x
0y
1z
1x
1y
0z
#760000
0!
0D
0p
0a
0q
#765000
1!
1D
1p
1a
1q
18"
0r
1s
1t
#770000
0!
0D
0p
0a
0q
#775000
1!
1D
1p
1a
1q
08"
17"
0t
0u
1r
0s
1t
1u
0v
1w
0x
0y
1v
0w
1x
1y
1z
0z
#780000
0!
0D
0p
0a
0q
#785000
1!
1D
1p
1a
1q
18"
0r
1s
0t
0u
0v
1w
0x
0y
1z
#790000
0!
0D
0p
0a
0q
#795000
1!
1D
1p
1a
1q
08"
07"
06"
05"
14"
0z
1{
1x
1y
1v
0w
1t
1u
1r
0s
0t
0v
0x
1z
0{
1|
0|
#800000
0!
0D
0p
0a
0q
#805000
1!
1D
1p
1a
1q
18"
0r
1s
1t
#810000
0!
0D
0p
0a
0q
#815000
1!
1D
1p
1a
1q
08"
17"
0t
0u
1r
0s
1t
1u
1v
0v
#820000
0!
0D
0p
0a
0q
#825000
1!
1D
1p
1a
1q
18"
0r
1s
0t
0u
1v
#830000
0!
0D
0p
0a
0q
#835000
1!
1D
1p
1a
1q
08"
07"
16"
0v
1w
1t
1u
1r
0s
0t
1v
0w
1x
0x
#840000
0!
0D
0p
0a
0q
#845000
1!
1D
1p
1a
1q
18"
0r
1s
1t
#850000
0!
0D
0p
0a
0q
#855000
1!
1D
1p
1a
1q
08"
17"
0t
0u
1r
0s
1t
1u
0v
1w
1x
1v
0w
0x
#860000
0!
0D
0p
0a
0q
#865000
1!
1D
1p
1a
1q
18"
0r
1s
0t
0u
0v
1w
1x
#870000
0!
0D
0p
0a
0q
#875000
1!
1D
1p
1a
1q
08"
07"
06"
15"
0x
0y
1v
0w
1t
1u
1r
0s
0t
0v
1x
1y
0z
1{
1|
1z
0{
0|
#880000
0!
0D
0p
0a
0q
#885000
1!
1D
1p
1a
1q
18"
0r
1s
1t
#890000
0!
0D
0p
0a
0q
#895000
1!
1D
1p
1a
1q
08"
17"
0t
0u
1r
0s
1t
1u
1v
0v
#900000
0!
0D
0p
0a
0q
#905000
1!
1D
1p
1a
1q
18"
0r
1s
0t
0u
1v
#910000
0!
0D
0p
0a
0q
#915000
1!
1D
1p
1a
1q
08"
07"
16"
0v
1w
1t
1u
1r
0s
0t
1v
0w
0x
0y
0z
1{
1x
1y
1z
0{
1|
0|
#920000
0!
0D
0p
0a
0q
#925000
1!
1D
1p
1a
1q
18"
0r
1s
1t
#930000
0!
0D
0p
0a
0q
#935000
1!
1D
1p
1a
1q
08"
17"
0t
0u
1r
0s
1t
1u
0v
1w
0x
0y
1v
0w
1x
1y
0z
1{
1|
1z
0{
0|
#940000
0!
0D
0p
0a
0q
#945000
1!
1D
1p
1a
1q
18"
0r
1s
0t
0u
0v
1w
0x
0y
0z
1{
1|
#950000
0!
0D
0p
0a
0q
#955000
1!
1D
1p
1a
1q
08"
07"
06"
05"
04"
13"
0|
0}
1z
0{
1x
1y
1v
0w
1t
1u
1r
0s
0t
0v
0x
0z
1|
1}
0~
1!!
1"!
1~
0!!
0"!
#960000
0!
0D
0p
0a
0q
#965000
1!
1D
1p
1a
1q
18"
0r
1s
1t
#970000
0!
0D
0p
0a
0q
#975000
1!
1D
1p
1a
1q
08"
17"
0t
0u
1r
0s
1t
1u
1v
0v
#980000
0!
0D
0p
0a
0q
#985000
1!
1D
1p
1a
1q
18"
0r
1s
0t
0u
1v
#990000
0!
0D
0p
0a
0q
#995000
1!
1D
1p
1a
1q
08"
07"
16"
0v
1w
1t
1u
1r
0s
0t
1v
0w
1x
0x
